\relax 
\@writefile{toc}{\contentsline {section}{\numberline {1}Introduction}{2}}
\@writefile{toc}{\contentsline {section}{\numberline {2}Theory}{2}}
\@writefile{toc}{\contentsline {subsection}{\numberline {2.1}Method of Steepest Descent}{2}}
\newlabel{eq:1}{{1}{2}}
\newlabel{eq:2}{{2}{2}}
\@writefile{toc}{\contentsline {subsection}{\numberline {2.2}Conjugate Gradient Methods}{3}}
\newlabel{eq:3}{{3}{3}}
\newlabel{eq:4}{{4}{3}}
\@writefile{toc}{\contentsline {subsubsection}{\numberline {2.2.1}Fletcher-Reeves Directions}{3}}
\newlabel{eq:5}{{5}{3}}
\@writefile{toc}{\contentsline {subsubsection}{\numberline {2.2.2}Polak-Ribiere Directions}{3}}
\newlabel{eq:6}{{6}{3}}
\@writefile{toc}{\contentsline {subsubsection}{\numberline {2.2.3}Polak-Ribiere ``Plus'' Directions}{3}}
\newlabel{eq:7}{{7}{3}}
\@writefile{toc}{\contentsline {section}{\numberline {3}Test functions}{3}}
\@writefile{toc}{\contentsline {section}{\numberline {4}Results}{5}}
\@writefile{toc}{\contentsline {subsection}{\numberline {4.1}Method of Steepest Descent}{6}}
\@writefile{lof}{\contentsline {figure}{\numberline {1}{\ignorespaces The Method of Steepest Descent evaluated by Rosenbrock's parabolic valley}}{6}}
\newlabel{fig:alg1test1}{{1}{6}}
\@writefile{lof}{\contentsline {figure}{\numberline {2}{\ignorespaces The Method of Steepest Descent evaluated by a quadratic function}}{6}}
\newlabel{fig:alg1test2}{{2}{6}}
\@writefile{lof}{\contentsline {figure}{\numberline {3}{\ignorespaces The Method of Steepest Descent evaluated by Powell's quartic function}}{7}}
\newlabel{fig:alg1test3}{{3}{7}}
\@writefile{lof}{\contentsline {figure}{\numberline {4}{\ignorespaces The Method of Steepest Descent evaluated by Fletcher and Powell's helical valley}}{7}}
\newlabel{fig:alg1test4}{{4}{7}}
\@writefile{lof}{\contentsline {figure}{\numberline {5}{\ignorespaces The Method of Steepest Descent evaluated by a non-linear function of three variables}}{8}}
\newlabel{fig:alg1test5}{{5}{8}}
\@writefile{lof}{\contentsline {figure}{\numberline {6}{\ignorespaces The Method of Steepest Descent evaluated by Freudenstein and Roth function}}{8}}
\newlabel{fig:alg1test6}{{6}{8}}
\@writefile{lof}{\contentsline {figure}{\numberline {7}{\ignorespaces The Method of Steepest Descent evaluated by Powell's badly scaled function}}{9}}
\newlabel{fig:alg1test7}{{7}{9}}
\@writefile{lof}{\contentsline {figure}{\numberline {8}{\ignorespaces The Method of Steepest Descent evaluated by Brown's badly scaled function}}{9}}
\newlabel{fig:alg1test8}{{8}{9}}
\@writefile{lof}{\contentsline {figure}{\numberline {9}{\ignorespaces The Method of Steepest Descent evaluated by Beale's function}}{10}}
\newlabel{fig:alg1test9}{{9}{10}}
\@writefile{lof}{\contentsline {figure}{\numberline {10}{\ignorespaces The Method of Steepest Descent evaluated by Wood's function}}{10}}
\newlabel{fig:alg1test10}{{10}{10}}
\@writefile{toc}{\contentsline {subsection}{\numberline {4.2}Conjugate}{11}}
\@writefile{lof}{\contentsline {figure}{\numberline {11}{\ignorespaces The Method of Steepest Descent evaluated by Rosenbrock's parabolic valley}}{11}}
\newlabel{fig:alg2test1}{{11}{11}}
\@writefile{lof}{\contentsline {figure}{\numberline {12}{\ignorespaces The Method of Steepest Descent evaluated by a quadratic function}}{11}}
\newlabel{fig:alg2test2}{{12}{11}}
\@writefile{lof}{\contentsline {figure}{\numberline {13}{\ignorespaces The Method of Steepest Descent evaluated by Powell's quartic function}}{12}}
\newlabel{fig:alg2test3}{{13}{12}}
\@writefile{lof}{\contentsline {figure}{\numberline {14}{\ignorespaces The Method of Steepest Descent evaluated by Fletcher and Powell's helical valley}}{12}}
\newlabel{fig:alg2test4}{{14}{12}}
\@writefile{lof}{\contentsline {figure}{\numberline {15}{\ignorespaces The Method of Steepest Descent evaluated by a non-linear function of three variables}}{13}}
\newlabel{fig:alg2test5}{{15}{13}}
\@writefile{lof}{\contentsline {figure}{\numberline {16}{\ignorespaces The Method of Steepest Descent evaluated by Freudenstein and Roth function}}{13}}
\newlabel{fig:alg2test6}{{16}{13}}
\@writefile{lof}{\contentsline {figure}{\numberline {17}{\ignorespaces The Method of Steepest Descent evaluated by Powell's badly scaled function}}{14}}
\newlabel{fig:alg2test7}{{17}{14}}
\@writefile{lof}{\contentsline {figure}{\numberline {18}{\ignorespaces The Method of Steepest Descent evaluated by Brown's badly scaled function}}{14}}
\newlabel{fig:alg2test8}{{18}{14}}
\@writefile{lof}{\contentsline {figure}{\numberline {19}{\ignorespaces The Method of Steepest Descent evaluated by Beale's function}}{15}}
\newlabel{fig:alg2test9}{{19}{15}}
\@writefile{lof}{\contentsline {figure}{\numberline {20}{\ignorespaces The Method of Steepest Descent evaluated by Wood's function}}{15}}
\newlabel{fig:alg2test10}{{20}{15}}
\@writefile{toc}{\contentsline {section}{\numberline {5}Conclusion}{16}}
\@writefile{toc}{\contentsline {section}{\numberline {6}Bibliography}{16}}
